Division,WeightClassKg,Place,Name,Team,BodyweightKg,Best3SquatKg,Best3BenchKg,Best3DeadliftKg,TotalKg,Equipment,Event,Sex,BirthDate
Boys,51.71,1,John Paul Acosta,Victoria West,50.89,131.54,90.72,154.22,376.48,Single-ply,SBD,M,
Boys,51.71,2,Mark Ochoa,Gregory-Portland,49.99,117.93,79.38,156.49,353.8,Single-ply,SBD,M,
Boys,51.71,3,Brandon Perez,Victoria West,51.07,120.2,74.84,156.49,351.53,Single-ply,SBD,M,
Boys,51.71,4,Austin Molina,Odem,48.72,136.08,74.84,136.08,347,Single-ply,SBD,M,
Boys,51.71,5,Sean Lamas,Premont,48.63,104.33,61.23,122.47,288.03,Single-ply,SBD,M,
Boys,51.71,6,Demarcus Gonzalez,Premont,46.54,102.06,47.63,117.93,267.62,Single-ply,SBD,M,
Boys,51.71,DQ,Zechariah De Leon,Odem,51.66,,,,,Single-ply,SBD,M,
Boys,51.71,DQ,Victor Roberson,Victoria East,50.98,,,,,Single-ply,SBD,M,
Boys,55.79,1,John Contreras,Beeville Jones,55.43,176.9,83.91,206.38,467.2,Single-ply,SBD,M,
Boys,55.79,2,Justin Cantu,Corpus Christi Calallen,54.16,131.54,104.33,154.22,390.09,Single-ply,SBD,M,
Boys,55.79,3,Connor Rackley,Corpus Christi Calallen,55.34,131.54,79.38,149.69,360.61,Single-ply,SBD,M,
Boys,55.79,4,Carlos Rosales,Corpus Christi Calallen,55.52,122.47,83.91,154.22,360.61,Single-ply,SBD,M,
Boys,55.79,5,Jayden Moya,Refugio,54.43,113.4,83.91,158.76,356.07,Single-ply,SBD,M,
Boys,55.79,6,Daniel Montoya,Gregory-Portland,51.98,117.93,81.65,142.88,342.46,Single-ply,SBD,M,
Boys,55.79,7,Gabriel Flores,Victoria West,53.89,108.86,58.97,136.08,303.91,Single-ply,SBD,M,
Boys,55.79,DQ,Adam Romero,Odem,55.75,,,,,Single-ply,SBD,M,
Boys,55.79,DQ,Shiv Ranchhod,Gregory-Portland,52.75,163.29,90.72,,,Single-ply,SBD,M,
Boys,59.87,1,Julian Cadena,Corpus Christi Calallen,59.6,192.78,154.22,181.44,528.44,Single-ply,SBD,M,
Boys,59.87,2,Javier Ontiveros,Refugio,58.88,154.22,95.25,181.44,430.91,Single-ply,SBD,M,
Boys,59.87,3,Nick Garza,Taft,59.87,151.95,92.99,179.17,424.11,Single-ply,SBD,M,
Boys,59.87,4,Victor Chansen,Premont,59.69,122.47,74.84,183.7,381.02,Single-ply,SBD,M,
Boys,59.87,5,Major Holland,Corpus Christi Calallen,58.97,138.35,92.99,136.08,367.41,Single-ply,SBD,M,
Boys,59.87,6,Ivan Moreno,Ben Bolt-Palito Blanco,59.24,136.08,90.72,124.74,351.53,Single-ply,SBD,M,
Boys,59.87,7,Riley Harris,Gregory-Portland,57.42,113.4,65.77,111.13,290.3,Single-ply,SBD,M,
Boys,59.87,DQ,Jared Jaso,Refugio,59.87,,,,,Single-ply,SBD,M,
Boys,67.13,1,Zachariah Smith,Beeville Jones,66.59,204.12,106.59,199.58,510.29,Single-ply,SBD,M,
Boys,67.13,2,Marco Gonzales,Odem,67.04,188.24,115.67,183.7,487.61,Single-ply,SBD,M,
Boys,67.13,3,Mason Gwosdz,Victoria East,64.95,192.78,97.52,172.37,462.66,Single-ply,SBD,M,
Boys,67.13,4,Jaime Caltzonzin,Victoria West,64.86,154.22,102.06,167.83,424.11,Single-ply,SBD,M,
Boys,67.13,5,Alanzo Hernandez,Victoria West,60.96,117.93,70.31,149.69,337.93,Single-ply,SBD,M,
Boys,67.13,6,Mason Jimenez,Victoria West,61.69,90.72,54.43,92.99,238.14,Single-ply,SBD,M,
Boys,67.13,DQ,Dylan Medina,Ben Bolt-Palito Blanco,67.13,136.08,72.57,,,Single-ply,SBD,M,
Boys,67.13,DQ,Tristan Haney,Victoria West,66.22,176.9,,,,Single-ply,SBD,M,
Boys,74.84,1,Lucian Medina,Corpus Christi Calallen,70.58,197.31,151.95,226.8,576.06,Single-ply,SBD,M,
Boys,74.84,2,Juan Garcia,Beeville Jones,73.39,190.51,138.35,199.58,528.44,Single-ply,SBD,M,
Boys,74.84,3,Noah Neibrandt,Victoria West,74.39,199.58,120.2,204.12,523.9,Single-ply,SBD,M,
Boys,74.84,4,Nathaniel Garcia,Corpus Christi Calallen,74.66,183.7,136.08,197.31,517.1,Single-ply,SBD,M,
Boys,74.84,5,Jordan Stafford,Victoria East,73.39,161.03,104.33,176.9,442.25,Single-ply,SBD,M,
Boys,82.1,1,Arnold Navarro,Ben Bolt-Palito Blanco,81.1,219.99,142.88,233.6,596.47,Single-ply,SBD,M,
Boys,82.1,2,Randal Delgado,Victoria East,78.56,254.01,127.01,213.19,594.21,Single-ply,SBD,M,
Boys,82.1,3,Ryan Arredondo,Gregory-Portland,81.19,226.8,113.4,190.51,530.7,Single-ply,SBD,M,
Boys,82.1,4,Kamauri Montgomery,Victoria West,81.74,188.24,106.59,174.63,469.47,Single-ply,SBD,M,
Boys,82.1,5,Mark Waul,Victoria West,78.38,149.69,86.18,195.04,430.91,Single-ply,SBD,M,
Boys,82.1,6,Jayden Thomas,Victoria West,79.83,142.88,74.84,142.88,360.61,Single-ply,SBD,M,
Boys,82.1,DQ,Mauricio Parra,Ben Bolt-Palito Blanco,76.02,138.35,83.91,,,Single-ply,SBD,M,
Boys,82.1,DQ,Daniel Martinez,Victoria East,81.01,,,,,Single-ply,SBD,M,
Boys,89.81,1,Epifanio Hinojosa,Corpus Christi Calallen,88.99,238.14,167.83,233.6,639.57,Single-ply,SBD,M,
Boys,89.81,2,Matthew Salinas,Beeville Jones,87.63,240.4,124.74,215.46,580.6,Single-ply,SBD,M,
Boys,89.81,3,Xavier Salazar,Victoria East,87.36,195.04,124.74,247.21,566.99,Single-ply,SBD,M,
Boys,89.81,4,Dayshuan Huerta,Victoria West,88.9,195.04,113.4,195.04,503.49,Single-ply,SBD,M,
Boys,89.81,5,Zane Artiaga,Victoria West,82.28,163.29,90.72,199.58,453.59,Single-ply,SBD,M,
Boys,89.81,6,Caiden Boeker,Premont,86.82,151.95,88.45,185.97,426.38,Single-ply,SBD,M,
Boys,89.81,7,Esteban Peña,Premont,86.91,113.4,68.04,158.76,340.19,Single-ply,SBD,M,
Boys,89.81,8,Ean Flores,Victoria West,87.63,111.13,61.23,111.13,283.5,Single-ply,SBD,M,
Boys,89.81,DQ,Dinodray Parker,Gregory-Portland,88.99,,,,,Single-ply,SBD,M,
Boys,99.79,1,Damian Diaz,Victoria West,97.79,254.01,124.74,240.4,619.15,Single-ply,SBD,M,
Boys,99.79,2,Bentley Orgis,Victoria East,94.08,217.72,154.22,208.65,580.6,Single-ply,SBD,M,
Boys,99.79,3,Michael Rocha,Refugio,98.34,219.99,124.74,226.8,571.53,Single-ply,SBD,M,
Boys,99.79,4,Joshua Jarman,Corpus Christi Calallen,93.08,215.46,131.54,217.72,564.72,Single-ply,SBD,M,
Boys,99.79,5,Michael Nesbitt,Gregory-Portland,92.44,219.99,124.74,195.04,539.77,Single-ply,SBD,M,
Boys,99.79,DQ,Jason Drummond,Gregory-Portland,90.08,201.85,,,,Single-ply,SBD,M,
Boys,109.77,1,Mark Lara,Gregory-Portland,105.32,272.16,165.56,247.21,684.92,Single-ply,SBD,M,
Boys,109.77,2,Xavier Aleman,Beeville Jones,109.23,281.23,181.44,213.19,675.85,Single-ply,SBD,M,
Boys,109.77,3,Josh Villela,Gregory-Portland,108.14,226.8,183.7,219.99,630.49,Single-ply,SBD,M,
Boys,109.77,4,Grant Taylor,Corpus Christi Calallen,107.41,267.62,151.95,204.12,623.69,Single-ply,SBD,M,
Boys,109.77,5,Jose Lugo,Victoria East,106.78,244.94,147.42,210.92,603.28,Single-ply,SBD,M,
Boys,109.77,6,Aureliano Saenz,Corpus Christi Calallen,109.13,219.99,158.76,215.46,594.21,Single-ply,SBD,M,
Boys,109.77,7,Brandon Baker,Gregory-Portland,106.59,181.44,122.47,176.9,480.81,Single-ply,SBD,M,
Boys,124.74,1,Jesse Siegford,Odem,109.86,249.48,158.76,208.65,616.89,Single-ply,SBD,M,
Boys,124.74,2,Jacob Ramos,Ben Bolt-Palito Blanco,117.84,192.78,106.59,199.58,498.95,Single-ply,SBD,M,
Boys,124.74,3,Christopher Goodman,Ben Bolt-Palito Blanco,112.22,170.1,124.74,170.1,464.93,Single-ply,SBD,M,
Boys,139.71,1,Cooper Kliem,Victoria East,132.81,290.3,147.42,231.33,669.05,Single-ply,SBD,M,
Boys,139.71,2,Brandon Montez,Taft,127.64,206.38,124.74,206.38,537.51,Single-ply,SBD,M,
Boys,139.71,DQ,Jayden Fraire,Victoria West,131.81,176.9,92.99,,,Single-ply,SBD,M,
Boys,139.71+,1,Patrick Davis,Corpus Christi Calallen,140.34,176.9,165.56,183.7,526.17,Single-ply,SBD,M,
