Division,WeightClassKg,Place,Name,Team,BodyweightKg,Best3SquatKg,Best3BenchKg,Best3DeadliftKg,TotalKg,Equipment,Event,Sex,BirthDate
Boys,51.71,1,Tevin Meade,Miles,51.44,158.76,88.45,163.29,410.5,Single-ply,SBD,M,
Boys,51.71,2,Eugene Vasquez,Coahoma,51.07,102.06,63.5,124.74,290.3,Single-ply,SBD,M,
Boys,55.79,1,Elijah Rodriguez,Coahoma,55.79,102.06,61.23,122.47,285.76,Single-ply,SBD,M,
Boys,59.87,1,Hector Colon-Rivera,Coahoma,59.87,170.1,79.38,179.17,428.64,Single-ply,SBD,M,
Boys,59.87,2,Reagan Chapman,Coahoma,58.97,142.88,77.11,142.88,362.87,Single-ply,SBD,M,
Boys,59.87,3,Austin Medina,Miles,59.33,127.01,77.11,138.35,342.46,Single-ply,SBD,M,
Boys,67.13,1,Dillon Medina,Miles,63.68,151.95,77.11,165.56,394.63,Single-ply,SBD,M,
Boys,74.84,1,Ben Turnbow,Abilene Wylie,74.48,174.63,127.01,174.63,476.27,Single-ply,SBD,M,
Boys,74.84,DQ,Jaxon Carpenter,Abilene Wylie,74.3,,,,,Single-ply,SBD,M,
Boys,99.79,1,Kade Kitchens,Abilene Wylie,93.26,183.7,145.15,197.31,526.17,Single-ply,SBD,M,
Boys,99.79,2,Caden Green,Abilene Wylie,99.79,172.37,151.95,176.9,501.22,Single-ply,SBD,M,
Boys,99.79,DQ,Joel Garcia,Miles,98.88,,,,,Single-ply,SBD,M,
Boys,99.79,DQ,Isaac Cordova,San Angelo Lake View,99.79,213.19,120.2,,,Single-ply,SBD,M,
Boys,109.77,1,Alex Alcantar,San Angelo Lake View,107.05,240.4,147.42,222.26,610.08,Single-ply,SBD,M,
Boys,124.74,DQ,Juan Ortiz,San Angelo Lake View,123.65,292.57,181.44,,,Single-ply,SBD,M,
Boys,139.71,1,Goni Gjocaj,Abilene Wylie,134.35,215.46,183.7,190.51,589.67,Single-ply,SBD,M,
Boys,139.71,2,John Cepeda,San Angelo Lake View,126.1,215.46,142.88,185.97,544.31,Single-ply,SBD,M,
Boys,139.71+,1,John Reagan,Coahoma,160.66,147.42,97.52,161.03,405.97,Single-ply,SBD,M,
Boys,139.71+,2,Cj Larson,Miles,143.15,120.2,115.67,124.74,360.61,Single-ply,SBD,M,
Boys,,NS,Austin Wood,San Angelo Lake View,,,,,,Single-ply,SBD,M,
