Division,WeightClassKg,Place,Name,Team,BodyweightKg,Best3SquatKg,Best3BenchKg,Best3DeadliftKg,TotalKg,Equipment,Event,Sex,BirthDate
Boys,51.71,1,Cole Welch,Brock,47.63,74.84,38.56,92.99,206.38,Single-ply,SBD,M,
Boys,55.79,1,Kyle Gore,Millsap,55.43,127.01,77.11,124.74,328.85,Single-ply,SBD,M,
Boys,55.79,2,Chance Dorsey,Santo,53.89,97.52,56.7,117.93,272.16,Single-ply,SBD,M,
Boys,55.79,3,Gavin Garcia,Brock,55.79,97.52,54.43,106.59,258.55,Single-ply,SBD,M,
Boys,55.79,4,Bryson Brunson,Brock,55.07,102.06,43.09,106.59,251.74,Single-ply,SBD,M,
Boys,67.13,1,Hut Thornton,Santo,67.13,181.44,92.99,179.17,453.59,Single-ply,SBD,M,
Boys,67.13,2,Cale Bramblett,Brock,66.13,165.56,90.72,188.24,444.52,Single-ply,SBD,M,
Boys,67.13,3,Griffin Cheslock,Brock,67.13,167.83,92.99,172.37,433.18,Single-ply,SBD,M,
Boys,67.13,4,Cole Griffith,Brock,67.13,154.22,86.18,170.1,410.5,Single-ply,SBD,M,
Boys,67.13,5,Alexis Espinosa,Jacksboro,67.04,111.13,63.5,145.15,319.78,Single-ply,SBD,M,
Boys,67.13,DQ,Jaxson Mizeski,Millsap,65.32,95.25,47.63,,,Single-ply,SBD,M,
Boys,74.84,1,Mikey Martinez,Jacksboro,70.58,197.31,120.2,204.12,521.63,Single-ply,SBD,M,
Boys,74.84,2,Jake Pierce,Brock,74.66,170.1,95.25,188.24,453.59,Single-ply,SBD,M,
Boys,74.84,3,Dylan Foster,Brock,72.76,161.03,90.72,170.1,421.84,Single-ply,SBD,M,
Boys,74.84,4,Logan Sides,Santo,74.21,154.22,86.18,165.56,405.97,Single-ply,SBD,M,
Boys,74.84,5,Reid Green,Millsap,68.58,149.69,83.91,147.42,381.02,Single-ply,SBD,M,
Boys,74.84,6,Andres Astello,Santo,71.3,127.01,61.23,138.35,326.59,Single-ply,SBD,M,
Boys,74.84,7,Jaxson Ward,Jacksboro,71.03,113.4,79.38,122.47,315.25,Single-ply,SBD,M,
Boys,74.84,DQ,Prayze Pierce,Archer City,73.98,124.74,,,,Single-ply,SBD,M,
Boys,82.1,1,CJ Navarro,Millsap,82.1,190.51,111.13,208.65,510.29,Single-ply,SBD,M,
Boys,82.1,2,Kole Weaver,Millsap,78.83,188.24,106.59,192.78,487.61,Single-ply,SBD,M,
Boys,82.1,3,Branden Firth,Santo,81.74,163.29,95.25,165.56,424.11,Single-ply,SBD,M,
Boys,82.1,4,Taylor Warner,Brock,81.83,156.49,106.59,154.22,417.3,Single-ply,SBD,M,
Boys,82.1,5,Abdiel Solis,Millsap,78.47,156.49,70.31,161.03,387.82,Single-ply,SBD,M,
Boys,82.1,6,Bryce Hunkapiller,Brock,77.84,142.88,86.18,145.15,374.21,Single-ply,SBD,M,
Boys,89.81,1,Cade Harris,Brock,89.81,226.8,133.81,208.65,569.26,Single-ply,SBD,M,
Boys,89.81,2,Sam Henderson,Santo,83.37,197.31,124.74,190.51,512.56,Single-ply,SBD,M,
Boys,89.81,3,Wilam Washburn,Brock,88.36,183.7,108.86,181.44,474,Single-ply,SBD,M,
Boys,89.81,4,Aiden Weathermon,Brock,89.09,170.1,92.99,190.51,453.59,Single-ply,SBD,M,
Boys,89.81,5,Michael Tallant,Santo,84.01,158.76,102.06,174.63,435.45,Single-ply,SBD,M,
Boys,89.81,6,Brendon Mason,Archer City,85.91,129.27,70.31,170.1,369.68,Single-ply,SBD,M,
Boys,99.79,1,Aldo Calvillo,Millsap,95.8,249.48,142.88,219.99,612.35,Single-ply,SBD,M,
Boys,99.79,2,Adam Mueller,Brock,99.79,238.14,127.01,199.58,564.72,Single-ply,SBD,M,
Boys,99.79,3,Ethan Brooks,Brock,98.43,179.17,124.74,185.97,489.88,Single-ply,SBD,M,
Boys,99.79,4,Steven McKey,Millsap,90.26,181.44,99.79,165.56,446.79,Single-ply,SBD,M,
Boys,99.79,5,Evan Clapp,Brock,98.88,167.83,99.79,156.49,424.11,Single-ply,SBD,M,
Boys,99.79,6,Marcus Olivarez,Jacksboro,99.34,167.83,81.65,158.76,408.23,Single-ply,SBD,M,
Boys,109.77,1,Brock Riker,Brock,105.14,192.78,106.59,188.24,487.61,Single-ply,SBD,M,
Boys,109.77,2,Desmon Jones,Brock,106.05,174.63,106.59,170.1,451.32,Single-ply,SBD,M,
Boys,109.77,3,Stephen Hernandez,Santo,100.83,163.29,97.52,158.76,419.57,Single-ply,SBD,M,
Boys,109.77,4,José Castro,Millsap,105.78,154.22,77.11,149.69,381.02,Single-ply,SBD,M,
Boys,109.77,DQ,Kadyn Mathews,Brock,101.7,208.65,,,,Single-ply,SBD,M,
Boys,124.74,1,Hunter Fay,Brock,116.75,210.92,136.08,204.12,551.11,Single-ply,SBD,M,
Boys,124.74,2,Andrew Olivarez,Jacksboro,124.65,222.26,115.67,183.7,521.63,Single-ply,SBD,M,
Boys,124.74,3,Hector Pacheco,Millsap,114.31,197.31,111.13,188.24,496.68,Single-ply,SBD,M,
Boys,124.74,4,Tres Meyers,Jacksboro,110.68,185.97,90.72,163.29,439.98,Single-ply,SBD,M,
Boys,124.74,5,Mason Glover,Millsap,114.49,183.7,90.72,163.29,437.72,Single-ply,SBD,M,
Boys,139.71,1,Brett Hamilton,Santo,132.99,192.78,108.86,174.63,476.27,Single-ply,SBD,M,
Boys,139.71+,1,Billy Bottorff,Millsap,173.27,201.85,97.52,188.24,487.61,Single-ply,SBD,M,
