Division,WeightClassKg,Place,Name,Team,BodyweightKg,Best3SquatKg,Best3BenchKg,Best3DeadliftKg,TotalKg,Equipment,Event,Sex,BirthDate
Boys,51.71,1,Anthony Ramirez,San Antonio East Central,49.9,111.13,88.45,147.42,347,Single-ply,SBD,M,
Boys,51.71,2,James Medrano,Seguin,50.35,124.74,74.84,131.54,331.12,Single-ply,SBD,M,
Boys,51.71,3,David Zamora,Luling,48.26,111.13,68.04,124.74,303.91,Single-ply,SBD,M,
Boys,51.71,4,Ashton Evans,Geronimo Navarro,51.17,106.59,68.04,106.59,281.23,Single-ply,SBD,M,
Boys,51.71,5,Caleb Rucker,Stockdale,50.89,86.18,61.23,117.93,265.35,Single-ply,SBD,M,
Boys,51.71,6,Karson Kelnar,Buda Hays,46.27,90.72,47.63,95.25,233.6,Single-ply,SBD,M,
Boys,55.79,1,Marcos Perez-Garcia,Geronimo Navarro,53.8,151.95,111.13,167.83,430.91,Single-ply,SBD,M,
Boys,55.79,2,Tony Harkey,Seguin,55.16,127.01,72.57,154.22,353.8,Single-ply,SBD,M,
Boys,55.79,3,Gabriel Soliz,Seguin,55.34,115.67,70.31,124.74,310.71,Single-ply,SBD,M,
Boys,55.79,4,Dorvin Moreno,Stockdale,55.07,111.13,70.31,124.74,306.17,Single-ply,SBD,M,
Boys,55.79,5,Aydin Luna,Kyle Lehman,54.34,102.06,63.5,129.27,294.84,Single-ply,SBD,M,
Boys,55.79,6,Eduardo Vasquez,Stockdale,54.98,111.13,63.5,120.2,294.84,Single-ply,SBD,M,
Boys,55.79,7,Matthew Tobias,Kyle Lehman,54.34,34.02,29.48,36.29,99.79,Single-ply,SBD,M,
Boys,59.87,1,Josh Soliz,Seguin,59.42,176.9,117.93,170.1,464.93,Single-ply,SBD,M,
Boys,59.87,2,Nicolas Martinez,Stockdale,58.69,163.29,83.91,163.29,410.5,Single-ply,SBD,M,
Boys,59.87,3,Jamar Utley,Manor New Tech,58.06,133.81,83.91,170.1,387.82,Single-ply,SBD,M,
Boys,59.87,4,Angel Salazar,Seguin,59.87,136.08,83.91,151.95,371.95,Single-ply,SBD,M,
Boys,59.87,5,Hector Garcia,Floresville,58.88,136.08,88.45,136.08,360.61,Single-ply,SBD,M,
Boys,59.87,6,Mel Garcia,Pettus,59.06,122.47,56.7,142.88,322.05,Single-ply,SBD,M,
Boys,59.87,7,Harley Anderson,Floresville,59.33,108.86,74.84,138.35,322.05,Single-ply,SBD,M,
Boys,67.13,1,Aidan Flores,Seguin,65.41,206.38,122.47,215.46,544.31,Single-ply,SBD,M,
Boys,67.13,2,Freddie Hastings,Seguin,66.77,167.83,117.93,195.04,480.81,Single-ply,SBD,M,
Boys,67.13,3,Jayme Robles,Stockdale,62.14,176.9,106.59,172.37,455.86,Single-ply,SBD,M,
Boys,67.13,4,Jayden Ramos,San Antonio East Central,66.22,165.56,124.74,158.76,449.06,Single-ply,SBD,M,
Boys,67.13,5,Fabio Reyes,Kyle Lehman,64.5,142.88,97.52,183.7,424.11,Single-ply,SBD,M,
Boys,67.13,6,Louis Stark,Floresville,64.41,147.42,97.52,149.69,394.63,Single-ply,SBD,M,
Boys,67.13,7,Russell Lover,Karnes City,67.13,147.42,86.18,156.49,390.09,Single-ply,SBD,M,
Boys,67.13,8,Camden Derricoatte,Stockdale,66.32,149.69,77.11,158.76,385.55,Single-ply,SBD,M,
Boys,67.13,9,Lucas Yull,Buda Hays,63.96,115.67,97.52,147.42,360.61,Single-ply,SBD,M,
Boys,67.13,10,Caleb Shiroky,Geronimo Navarro,66.95,115.67,90.72,149.69,356.07,Single-ply,SBD,M,
Boys,67.13,11,Thor Jensen,Geronimo Navarro,66.13,124.74,86.18,142.88,353.8,Single-ply,SBD,M,
Boys,67.13,12,Jayden Harbison,Kyle Lehman,62.14,122.47,65.77,154.22,342.46,Single-ply,SBD,M,
Boys,67.13,13,Gilbert Resendez,San Antonio Wagner,60.51,120.2,70.31,138.35,328.85,Single-ply,SBD,M,
Boys,67.13,14,Jonathon Banuelos,San Antonio Wagner,63.87,113.4,63.5,124.74,301.64,Single-ply,SBD,M,
Boys,67.13,15,Cristian Reyes,Luling,60.78,106.59,61.23,120.2,288.03,Single-ply,SBD,M,
Boys,67.13,DQ,Matthew Peche,Universal City Randolph,67.13,,,,,Single-ply,SBD,M,
Boys,74.84,1,Gavin LaFleur,Floresville,68.76,219.99,129.27,219.99,569.26,Single-ply,SBD,M,
Boys,74.84,2,Izaac Zamora,Geronimo Navarro,74.62,217.72,129.27,213.19,560.19,Single-ply,SBD,M,
Boys,74.84,3,Joel Salazar,Seguin,73.75,183.7,133.81,219.99,537.51,Single-ply,SBD,M,
Boys,74.84,4,Miguel Guerra,Kyle Lehman,72.76,181.44,104.33,215.46,501.22,Single-ply,SBD,M,
Boys,74.84,5,Aaron Davis,Universal City Randolph,73.03,181.44,99.79,181.44,462.66,Single-ply,SBD,M,
Boys,74.84,6,Rodolfo Ayala,Stockdale,67.31,170.1,97.52,172.37,439.98,Single-ply,SBD,M,
Boys,74.84,7,Juan Franco,Stockdale,73.75,167.83,99.79,170.1,437.72,Single-ply,SBD,M,
Boys,74.84,8,Chris Cannedy,Universal City Randolph,74.12,163.29,83.91,172.37,419.57,Single-ply,SBD,M,
Boys,74.84,9,Trentyn Voelkel,Stockdale,70.31,147.42,90.72,165.56,403.7,Single-ply,SBD,M,
Boys,74.84,10,Nikolaus Mahlstede,Stockdale,67.31,149.69,86.18,165.56,401.43,Single-ply,SBD,M,
Boys,74.84,11,Daniel Min,Universal City Randolph,72.94,156.49,102.06,142.88,401.43,Single-ply,SBD,M,
Boys,74.84,12,Rhys Bray,Universal City Randolph,73.3,151.95,79.38,163.29,394.63,Single-ply,SBD,M,
Boys,74.84,13,Logen Balcar,Floresville,73.57,129.27,97.52,136.08,362.87,Single-ply,SBD,M,
Boys,74.84,14,Brett Shibilski,Universal City Randolph,73.03,129.27,68.04,142.88,340.19,Single-ply,SBD,M,
Boys,74.84,DQ,Jayden Perez,Buda Hays,74.84,,,,,Single-ply,SBD,M,
Boys,74.84,DQ,Colton Breitenkamp,Geronimo Navarro,74.84,,,,,Single-ply,SBD,M,
Boys,74.84,DQ,Jyrine Campbell,San Antonio Wagner,74.84,,,,,Single-ply,SBD,M,
Boys,74.84,DQ,Zachary Nelson,Floresville,73.3,199.58,142.88,,,Single-ply,SBD,M,
Boys,82.1,1,Caden Bosanko,San Antonio East Central,81.92,249.48,117.93,208.65,576.06,Single-ply,SBD,M,
Boys,82.1,2,Jerivan Contreras,Seguin,82.1,206.38,149.69,215.46,571.53,Single-ply,SBD,M,
Boys,82.1,3,Aidan Sanchez,Luling,80.01,199.58,113.4,213.19,526.17,Single-ply,SBD,M,
Boys,82.1,4,Sincere Alaniz,Karnes City,80.65,185.97,108.86,213.19,508.02,Single-ply,SBD,M,
Boys,82.1,5,Diego Campos,Geronimo Navarro,81.74,181.44,115.67,210.92,508.02,Single-ply,SBD,M,
Boys,82.1,6,Micheal Bischoff,Buda Hays,80.65,176.9,120.2,170.1,467.2,Single-ply,SBD,M,
Boys,82.1,7,Adrian Crumley,Luling,79.92,165.56,122.47,174.63,462.66,Single-ply,SBD,M,
Boys,82.1,8,Hayden Toliver,Geronimo Navarro,78.38,176.9,102.06,181.44,460.4,Single-ply,SBD,M,
Boys,82.1,9,Langston Strable,Universal City Randolph,78.83,179.17,102.06,172.37,453.59,Single-ply,SBD,M,
Boys,82.1,10,Alexavier Gonzales,Manor New Tech,82.1,161.03,106.59,174.63,442.25,Single-ply,SBD,M,
Boys,82.1,11,Wade Lee,Floresville,80.01,156.49,97.52,163.29,417.3,Single-ply,SBD,M,
Boys,82.1,12,Matheus Eifling,Kyle Lehman,76.48,88.45,52.16,95.25,235.87,Single-ply,SBD,M,
Boys,82.1,DQ,LJ Kroll,Karnes City,82.1,,,,,Single-ply,SBD,M,
Boys,82.1,DQ,Alberto Vasquez,Floresville,82.1,,,,,Single-ply,SBD,M,
Boys,82.1,DQ,Reynaldo Torres,San Antonio East Central,82.1,,,,,Single-ply,SBD,M,
Boys,82.1,DQ,Vilhelm Hansson,Floresville,81.47,,,,,Single-ply,SBD,M,
Boys,89.81,1,Logan Baker,Stockdale,86.82,258.55,136.08,251.74,646.37,Single-ply,SBD,M,
Boys,89.81,2,Michael Connell,San Antonio East Central,87.54,215.46,142.88,251.74,610.08,Single-ply,SBD,M,
Boys,89.81,3,Daniel Arellano,Floresville,83.91,210.92,136.08,226.8,573.79,Single-ply,SBD,M,
Boys,89.81,4,Mack Berry,Geronimo Navarro,86.73,199.58,131.54,208.65,539.77,Single-ply,SBD,M,
Boys,89.81,5,Matt Richardson,Geronimo Navarro,88.09,199.58,142.88,190.51,532.97,Single-ply,SBD,M,
Boys,89.81,6,Steve Nguyen,Manor New Tech,88.72,151.95,99.79,217.72,469.47,Single-ply,SBD,M,
Boys,89.81,7,Donovan Mendoza,Kyle Lehman,88.9,161.03,129.27,176.9,467.2,Single-ply,SBD,M,
Boys,89.81,8,Robert Mendoza,San Antonio Wagner,88.54,158.76,122.47,183.7,464.93,Single-ply,SBD,M,
Boys,89.81,9,Roman Lua,San Antonio East Central,88.72,161.03,102.06,167.83,430.91,Single-ply,SBD,M,
Boys,89.81,10,Jason Coronado,Floresville,88.63,142.88,113.4,158.76,415.04,Single-ply,SBD,M,
Boys,89.81,11,John Alba,Manor New Tech,84.46,124.74,92.99,192.78,410.5,Single-ply,SBD,M,
Boys,89.81,12,Omar Solis,Luling,89.81,158.76,79.38,165.56,403.7,Single-ply,SBD,M,
Boys,89.81,13,Marcus Hernandez,Buda Hays,84.91,154.22,86.18,154.22,394.63,Single-ply,SBD,M,
Boys,89.81,14,Blas Mendez,Buda Hays,84.28,136.08,83.91,154.22,374.21,Single-ply,SBD,M,
Boys,89.81,15,Jacob Crosby,Buda Hays,88.63,145.15,86.18,127.01,358.34,Single-ply,SBD,M,
Boys,89.81,16,Isaiah Valencia,Universal City Randolph,87,111.13,68.04,129.27,308.44,Single-ply,SBD,M,
Boys,89.81,DQ,Padwa Nunez,Universal City Randolph,84.1,190.51,120.2,,,Single-ply,SBD,M,
Boys,99.79,1,Timothy Huff,San Antonio East Central,93.44,240.4,127.01,269.89,637.3,Single-ply,SBD,M,
Boys,99.79,2,Christian Ramirez,Buda Hays,99.79,192.78,151.95,197.31,542.04,Single-ply,SBD,M,
Boys,99.79,3,Skylar Germany,Seguin,93.08,201.85,115.67,188.24,505.76,Single-ply,SBD,M,
Boys,99.79,4,Mason Moore,Karnes City,94.26,195.04,108.86,188.24,492.15,Single-ply,SBD,M,
Boys,99.79,5,Jared Rogers,Seguin,97.52,183.7,106.59,197.31,487.61,Single-ply,SBD,M,
Boys,99.79,6,Aidan Garza,Karnes City,91.08,161.03,88.45,199.58,449.06,Single-ply,SBD,M,
Boys,99.79,7,Donovan Peters,Universal City Randolph,91.17,174.63,88.45,176.9,439.98,Single-ply,SBD,M,
Boys,99.79,8,Miguel Roman,Luling,99.79,170.1,92.99,170.1,433.18,Single-ply,SBD,M,
Boys,99.79,9,James Bruce,San Antonio Wagner,92.17,136.08,65.77,165.56,367.41,Single-ply,SBD,M,
Boys,99.79,DQ,Kyle Romans,Universal City Randolph,99.79,,,,,Single-ply,SBD,M,
Boys,99.79,DQ,Ethan Jones,Buda Hays,99.79,,,,,Single-ply,SBD,M,
Boys,99.79,DQ,Nathan Min,Universal City Randolph,99.79,,,,,Single-ply,SBD,M,
Boys,109.77,1,DJ Nunez,Karnes City,100.79,249.48,147.42,229.06,625.96,Single-ply,SBD,M,
Boys,109.77,2,Dylon Gatica,Karnes City,106.32,240.4,138.35,213.19,591.94,Single-ply,SBD,M,
Boys,109.77,3,Toni Cole,Geronimo Navarro,108.27,210.92,127.01,206.38,544.31,Single-ply,SBD,M,
Boys,109.77,4,Abraham Valenzuela,San Antonio Wagner,104.69,170.1,136.08,217.72,523.9,Single-ply,SBD,M,
Boys,109.77,5,Jathan Alvear,Karnes City,102.06,188.24,108.86,174.63,471.74,Single-ply,SBD,M,
Boys,109.77,6,Terrell August,San Antonio Wagner,108.41,158.76,92.99,188.24,439.98,Single-ply,SBD,M,
Boys,109.77,7,Matias Mojica,San Antonio East Central,100.88,124.74,108.86,183.7,417.3,Single-ply,SBD,M,
Boys,109.77,DQ,Derek Lopez,Karnes City,106.41,170.1,79.38,,,Single-ply,SBD,M,
Boys,109.77,DQ,Brody Whitson,Geronimo Navarro,106.14,249.48,,,,Single-ply,SBD,M,
Boys,124.74,1,Michael Pinones,San Antonio East Central,122.65,254.01,158.76,233.6,646.37,Single-ply,SBD,M,
Boys,124.74,2,Jalen Miller,Kyle Lehman,116.66,240.4,127.01,215.46,582.87,Single-ply,SBD,M,
Boys,124.74,3,Solomon Barnoski,Karnes City,116.57,213.19,138.35,206.38,557.92,Single-ply,SBD,M,
Boys,124.74,4,Nathan Rodriguez,Buda Hays,115.67,219.99,138.35,183.7,542.04,Single-ply,SBD,M,
Boys,124.74,5,Brian Gonzalez,San Antonio Wagner,119.75,217.72,106.59,183.7,508.02,Single-ply,SBD,M,
Boys,124.74,6,Xavier Hidalgo,Manor New Tech,120.66,183.7,129.27,192.78,505.76,Single-ply,SBD,M,
Boys,124.74,7,Zackaria Biessar,Stockdale,112.22,197.31,111.13,190.51,498.95,Single-ply,SBD,M,
Boys,124.74,8,Rafael Santamaria,Luling,118.93,183.7,120.2,163.29,467.2,Single-ply,SBD,M,
Boys,124.74,9,Nehemiah Hernandez,San Antonio Wagner,118.21,167.83,104.33,154.22,426.38,Single-ply,SBD,M,
Boys,124.74,10,Josh Harmer,Kyle Lehman,116.57,151.95,102.06,149.69,403.7,Single-ply,SBD,M,
Boys,124.74,11,Zaphanaius Thioana,San Antonio Wagner,121.47,142.88,92.99,154.22,390.09,Single-ply,SBD,M,
Boys,139.71,1,Dylan Clifton,Buda Hays,132.45,217.72,147.42,231.33,596.47,Single-ply,SBD,M,
Boys,139.71,2,Mario Cavazos,Seguin,125.55,197.31,117.93,190.51,505.76,Single-ply,SBD,M,
Boys,139.71,3,Christian Donalson,San Antonio Wagner,130.54,195.04,102.06,199.58,496.68,Single-ply,SBD,M,
Boys,139.71,4,Trey Garner,Geronimo Navarro,139.43,174.63,115.67,176.9,467.2,Single-ply,SBD,M,
Boys,139.71,5,Jose Guillen,Luling,127.46,156.49,122.47,172.37,451.32,Single-ply,SBD,M,
Boys,139.71,6,Marcus Tristan,Karnes City,127.46,174.63,102.06,167.83,444.52,Single-ply,SBD,M,
Boys,139.71,7,Doyle Berry,Geronimo Navarro,128.09,161.03,115.67,165.56,442.25,Single-ply,SBD,M,
Boys,139.71,8,Donald Jurek,San Antonio East Central,135.53,113.4,113.4,136.08,362.87,Single-ply,SBD,M,
Boys,139.71,DQ,William Viator,San Antonio East Central,136.08,,,,,Single-ply,SBD,M,
Boys,139.71,DQ,Jonathan Pesina,Buda Hays,139.71,,,,,Single-ply,SBD,M,
Boys,139.71,DQ,Alex Funes,Geronimo Navarro,133.27,206.38,142.88,,,Single-ply,SBD,M,
Boys,139.71+,1,Kiylyn Black,Luling,142.79,222.26,127.01,238.14,587.4,Single-ply,SBD,M,
Boys,139.71+,2,Treyden Scott,Luling,146.06,222.26,113.4,183.7,519.36,Single-ply,SBD,M,
Boys,139.71+,3,Jerry Allen,San Antonio Wagner,148.78,183.7,113.4,179.17,476.27,Single-ply,SBD,M,
Boys,139.71+,4,Exodus Acevedo,Floresville,141.34,161.03,117.93,195.04,474,Single-ply,SBD,M,
Boys,139.71+,5,Ethan Lopez,Karnes City,174.91,183.7,106.59,183.7,474,Single-ply,SBD,M,
Boys,,NS,Tyler Adams,Pettus,,,,,,Single-ply,SBD,M,
