WeightClassKg,Name,Division,Sex,Best3SquatKg,Best3BenchKg,Best3DeadliftKg,TotalKg,Event,Equipment,Place
,Joanne Shear,Women,F,83.91,43.09,127.01,254.01,SBD,Single-ply,1
,Linda Williams,Women,F,117.93,49.9,127.01,294.84,SBD,Single-ply,2
,Jill Mullens,Women,F,79.38,56.7,106.59,242.67,SBD,Single-ply,3
,Randy Suitye,Women,F,124.74,77.11,138.35,340.19,SBD,Single-ply,4
,Cynthia Alba,Women,F,70.31,65.77,120.2,256.28,SBD,Single-ply,5
,Donna Sylvia,Women,F,108.86,,,,SBD,Single-ply,DQ
,T. Hitzenbuhler,Women,F,,,,,SBD,Single-ply,DQ
52,Noel Frattasio,Open,M,68.04,45.36,86.18,199.58,SBD,Single-ply,1
56,Don Cormier,Open,M,108.86,74.84,127.01,310.71,SBD,Single-ply,1
60,David Gladu,Open,M,147.42,106.59,156.49,410.5,SBD,Single-ply,1
60,Ed Huguenin,Open,M,115.67,99.79,147.42,362.87,SBD,Single-ply,2
67.5,Adam Frattasio,Open,M,208.65,120.2,204.12,532.97,SBD,Single-ply,1
67.5,Steve Bruno,Open,M,188.24,111.13,199.58,498.95,SBD,Single-ply,2
67.5,John Capece,Open,M,154.22,127.01,204.12,485.34,SBD,Single-ply,3
67.5,Steve DeCosta,Open,M,158.76,133.81,192.78,485.34,SBD,Single-ply,4
67.5,Rich Porro,Open,M,167.83,104.33,192.78,464.93,SBD,Single-ply,5
67.5,Charles Alaconis,Open,M,158.76,106.59,183.7,449.06,SBD,Single-ply,6
67.5,Ed Shanley,Open,M,163.29,102.06,179.17,444.52,SBD,Single-ply,7
67.5,Tom Marchand,Open,M,158.76,106.59,174.63,439.98,SBD,Single-ply,8
67.5,Chris St Onge,Open,M,138.35,104.33,195.04,437.72,SBD,Single-ply,9
67.5,Steve Fleming #3,Open,M,161.03,86.18,181.44,428.64,SBD,Single-ply,10
67.5,Kurt Brunetto,Open,M,136.08,99.79,149.69,385.55,SBD,Single-ply,11
75,Ed Fitzgerald,Open,M,235.87,149.69,226.8,612.35,SBD,Single-ply,1
75,Mark Trocki,Open,M,206.38,136.08,244.94,587.4,SBD,Single-ply,2
75,Mike Keefe,Open,M,210.92,133.81,233.6,578.33,SBD,Single-ply,3
75,Claude Gionet,Open,M,231.33,102.06,226.8,560.19,SBD,Single-ply,4
75,William Denbin,Open,M,201.85,127.01,215.46,544.31,SBD,Single-ply,5
75,Scott Hamlen,Open,M,213.19,120.2,210.92,544.31,SBD,Single-ply,6
75,James Muto,Open,M,190.51,136.08,208.65,535.24,SBD,Single-ply,7
75,Shane Carlson,Open,M,197.31,131.54,199.58,528.44,SBD,Single-ply,8
75,Tom Poirier,Open,M,181.44,124.74,217.72,523.9,SBD,Single-ply,9
75,John Foody,Open,M,199.58,115.67,204.12,519.36,SBD,Single-ply,10
75,Glenn Mattson,Open,M,176.9,113.4,226.8,517.1,SBD,Single-ply,11
75,Paul Topham,Open,M,190.51,106.59,204.12,501.22,SBD,Single-ply,12
75,Rod Deland,Open,M,163.29,68.04,172.37,403.7,SBD,Single-ply,13
75,Todd Grant,Open,M,167.83,102.06,,,SBD,Single-ply,DQ
82.5,John Anastasi,Open,M,260.82,170.1,265.35,696.26,SBD,Single-ply,1
82.5,Paul Gaipo,Open,M,258.55,190.51,244.94,694,SBD,Single-ply,2
82.5,Dick Masison,Open,M,226.8,158.76,249.48,635.03,SBD,Single-ply,3
82.5,Dale Cronin,Open,M,226.8,127.01,249.48,603.28,SBD,Single-ply,4
82.5,Fred Arakelian,Open,M,231.33,136.08,233.6,601.01,SBD,Single-ply,5
82.5,Mike Mielnicki,Open,M,226.8,142.88,231.33,601.01,SBD,Single-ply,6
82.5,Bruce Namenson,Open,M,204.12,163.29,231.33,598.74,SBD,Single-ply,7
82.5,Charles Scott,Open,M,226.8,131.54,238.14,596.47,SBD,Single-ply,8
82.5,Dennis Schuman,Open,M,226.8,145.15,222.26,594.21,SBD,Single-ply,9
82.5,Mark Ironfield,Open,M,219.99,117.93,235.87,573.79,SBD,Single-ply,10
82.5,Terry Manning,Open,M,208.65,127.01,226.8,562.45,SBD,Single-ply,11
82.5,Mike Guirreia,Open,M,213.19,129.27,213.19,555.65,SBD,Single-ply,12
82.5,Lawrence Patten,Open,M,192.78,102.06,226.8,521.63,SBD,Single-ply,13
82.5,Joe Cotton,Open,M,122.47,104.33,181.44,408.23,SBD,Single-ply,14
82.5,Don McCauley,Open,M,,,,,SBD,Single-ply,DQ
82.5,D. DiRienzo,Open,M,,,,,SBD,Single-ply,DQ
82.5,Geo Leal,Open,M,,,,,SBD,Single-ply,DQ
82.5,G. Greene,Open,M,,,,,SBD,Single-ply,DQ
90,John Sabourin,Open,M,274.42,176.9,254.01,705.34,SBD,Single-ply,1
90,Butch Barrows,Open,M,244.94,167.83,263.08,675.85,SBD,Single-ply,2
90,Michael Mari,Open,M,249.48,167.83,256.28,673.58,SBD,Single-ply,3
90,Dino Simonetti,Open,M,263.08,136.08,272.16,671.32,SBD,Single-ply,4
90,David Bergeron,Open,M,265.35,154.22,249.48,669.05,SBD,Single-ply,5
90,Dave Holbrook,Open,M,247.21,124.74,229.06,601.01,SBD,Single-ply,6
90,Charles Lennick,Open,M,256.28,136.08,247.21,639.57,SBD,Single-ply,7
90,Bob Sorrells,Open,M,240.4,161.03,235.87,637.3,SBD,Single-ply,8
90,Jeff Kent,Open,M,240.4,136.08,240.4,616.89,SBD,Single-ply,9
90,Tom Andrea,Open,M,229.06,138.35,249.48,616.89,SBD,Single-ply,10
90,Ron Krystopolski,Open,M,226.8,158.76,226.8,612.35,SBD,Single-ply,11
90,Leon Marinos,Open,M,226.8,131.54,242.67,601.01,SBD,Single-ply,12
90,John Dowdy,Open,M,210.92,151.95,229.06,591.94,SBD,Single-ply,13
90,Frank Forti,Open,M,204.12,131.54,238.14,573.79,SBD,Single-ply,14
90,Joe Kelley,Open,M,217.72,133.81,217.72,569.26,SBD,Single-ply,15
90,Pete Bagley,Open,M,206.38,124.74,235.87,566.99,SBD,Single-ply,16
90,Larry Tracey,Open,M,192.78,154.22,215.46,562.45,SBD,Single-ply,17
90,Dennis Maroney,Open,M,,,,,SBD,Single-ply,DQ
90,Robert Rogers,Open,M,,,,,SBD,Single-ply,DQ
100,Oscar Dupre,Open,M,274.42,179.17,288.03,741.62,SBD,Single-ply,1
100,Joe Young,Open,M,281.23,174.63,278.96,734.82,SBD,Single-ply,2
100,David Lynch,Open,M,263.08,167.83,292.57,723.48,SBD,Single-ply,3
100,John Powell,Open,M,256.28,192.78,274.42,723.48,SBD,Single-ply,4
100,Tom Bernier,Open,M,272.16,138.35,281.23,691.73,SBD,Single-ply,5
100,James Ford,Open,M,240.4,188.24,258.55,687.19,SBD,Single-ply,6
100,John Dustin,Open,M,249.48,158.76,240.4,648.64,SBD,Single-ply,7
100,Anthony Bethony,Open,M,238.14,165.56,238.14,641.83,SBD,Single-ply,8
100,Cash Huskinson,Open,M,226.8,174.63,240.4,641.83,SBD,Single-ply,9
100,Steve Ward,Open,M,219.99,165.56,240.4,625.96,SBD,Single-ply,10
100,Rich Delancy,Open,M,231.33,136.08,235.87,603.28,SBD,Single-ply,11
100,Barry Eisenman,Open,M,149.69,108.86,201.85,460.4,SBD,Single-ply,12
100,Wayne Fillion,Open,M,263.08,138.35,,,SBD,Single-ply,DQ
100,D. Carroll,Open,M,215.46,,,,SBD,Single-ply,DQ
100,Robert Ward,Open,M,,,,,SBD,Single-ply,DQ
110,Robert Dee,Open,M,272.16,195.04,294.84,762.04,SBD,Single-ply,1
110,William Rowe,Open,M,260.82,170.1,299.37,730.28,SBD,Single-ply,2
110,Mike Osmond,Open,M,281.23,174.63,260.82,716.68,SBD,Single-ply,3
110,Tom MacDonald #3,Open,M,226.8,181.44,254.01,662.24,SBD,Single-ply,4
110,Rich Buccheri,Open,M,247.21,136.08,249.48,632.76,SBD,Single-ply,5
110,Kevin Kiley,Guest,M,328.85,229.06,303.91,861.83,SBD,Single-ply,G
125,David Stanley,Open,M,308.44,199.58,299.37,807.39,SBD,Single-ply,1
125,Ray Foreman,Open,M,294.84,179.17,294.84,768.84,SBD,Single-ply,2
125,John Buckley,Open,M,285.76,165.56,294.84,746.16,SBD,Single-ply,3
125,Bob Huckins,Open,M,299.37,147.42,290.3,737.09,SBD,Single-ply,4
125,John Macombe,Open,M,260.82,161.03,258.55,680.39,SBD,Single-ply,5
125,Roger Biron,Open,M,181.44,208.65,219.99,610.08,SBD,Single-ply,6
125,Lou Modestino,Open,M,181.44,113.4,192.78,487.61,SBD,Single-ply,7
125,John Dias,Open,M,290.3,,,,SBD,Single-ply,DQ
125,Russ Barlow #1,Open,M,,,,,SBD,Single-ply,DQ
125,Paul Morante,Guest,M,322.05,219.99,290.3,832.34,SBD,Single-ply,G
