Division,WeightClassKg,Place,Name,Team,BodyweightKg,Best3SquatKg,Best3BenchKg,Best3DeadliftKg,TotalKg,Equipment,Event,Sex,BirthDate
Boys,51.71,1,Frank Pastusek,Castleberry,48.9,83.91,58.97,92.99,235.87,Single-ply,SBD,M,
Boys,55.79,1,Avington Cornell,Lake Worth,55.79,131.54,61.23,165.56,358.34,Single-ply,SBD,M,
Boys,67.13,1,Mathew Salazar,Lake Worth,62.87,142.88,90.72,192.78,426.38,Single-ply,SBD,M,
Boys,67.13,2,Kevin Ramirez,Weatherford,63.68,151.95,108.86,147.42,408.23,Single-ply,SBD,M,
Boys,67.13,3,Dominic Garcia,Castleberry,63.05,131.54,95.25,136.08,362.87,Single-ply,SBD,M,
Boys,67.13,4,Junior Ramirez,Castleberry,64.5,122.47,90.72,136.08,349.27,Single-ply,SBD,M,
Boys,67.13,5,Scott Burns,Lake Worth,66.59,117.93,83.91,133.81,335.66,Single-ply,SBD,M,
Boys,74.84,1,Jeramiah Wilton,Weatherford,74.84,254.01,158.76,226.8,639.57,Single-ply,SBD,M,
Boys,74.84,2,Heith Lewis,Peaster,72.76,183.7,104.33,174.63,462.66,Single-ply,SBD,M,
Boys,74.84,3,Maya Jesus,Weatherford,74.21,183.7,88.45,151.95,424.11,Single-ply,SBD,M,
Boys,74.84,4,Danny Munson,Peaster,69.49,161.03,95.25,158.76,415.04,Single-ply,SBD,M,
Boys,74.84,5,Anthony Moreno,Lake Worth,70.94,145.15,104.33,158.76,408.23,Single-ply,SBD,M,
Boys,74.84,6,Jose Coronado,Castleberry,70.31,142.88,102.06,142.88,387.82,Single-ply,SBD,M,
Boys,74.84,7,Diego Valenzuela,Lake Worth,74.48,124.74,97.52,142.88,365.14,Single-ply,SBD,M,
Boys,82.1,1,Wyatt Lacy,Peaster,78.29,235.87,120.2,217.72,573.79,Single-ply,SBD,M,
Boys,82.1,2,Barrett Smith,Weatherford,79.29,192.78,142.88,213.19,548.85,Single-ply,SBD,M,
Boys,82.1,3,Daniel Jasso,Castleberry,80.01,188.24,129.27,170.1,487.61,Single-ply,SBD,M,
Boys,82.1,4,Dante Reece,Lake Worth,80.29,149.69,117.93,142.88,410.5,Single-ply,SBD,M,
Boys,82.1,5,Marvin Terry,Castleberry,80.92,129.27,106.59,142.88,378.75,Single-ply,SBD,M,
Boys,89.81,1,Dominic Alvarez,Lake Worth,84.37,158.76,86.18,190.51,435.45,Single-ply,SBD,M,
Boys,89.81,1,Daniel Seals,Weatherford,89.63,222.26,183.7,215.46,621.42,Single-ply,SBD,M,
Boys,89.81,2,Cole Faires,Peaster,88.63,217.72,131.54,226.8,576.06,Single-ply,SBD,M,
Boys,89.81,3,Young Everett,Weatherford,85.28,192.78,136.08,176.9,505.76,Single-ply,SBD,M,
Boys,89.81,4,Chris Santamaria,Castleberry,84.1,165.56,124.74,142.88,433.18,Single-ply,SBD,M,
Boys,99.79,1,Bradyn Gachuzo,Peaster,92.08,183.7,124.74,176.9,485.34,Single-ply,SBD,M,
Boys,99.79,2,Juan Moreno,Lake Worth,96.16,176.9,97.52,192.78,467.2,Single-ply,SBD,M,
Boys,99.79,3,Clay Jones,Peaster,95.25,167.83,104.33,142.88,415.04,Single-ply,SBD,M,
Boys,109.77,1,Bryson Ross,Weatherford,106.68,208.65,158.76,195.04,562.45,Single-ply,SBD,M,
Boys,109.77,2,Eagan Dennett,Weatherford,109.77,183.7,163.29,199.58,546.58,Single-ply,SBD,M,
Boys,109.77,3,Omar Chehade,Weatherford,108.68,208.65,131.54,204.12,544.31,Single-ply,SBD,M,
Boys,124.74,1,Karson Daniel,Weatherford,116.12,240.4,188.24,231.33,659.98,Single-ply,SBD,M,
Boys,124.74,2,Ryan Clark,Weatherford,113.67,240.4,163.29,204.12,607.81,Single-ply,SBD,M,
Boys,124.74,3,Cooper Sharp,Peaster,116.12,249.48,127.01,226.8,603.28,Single-ply,SBD,M,
Boys,124.74,4,Matthew Welch,Lake Worth,123.56,204.12,131.54,215.46,551.11,Single-ply,SBD,M,
Boys,124.74,5,Josh Espinosa,Lake Worth,112.04,210.92,124.74,170.1,505.76,Single-ply,SBD,M,
Boys,124.74,6,Ethan Vargas,Castleberry,111.58,197.31,113.4,172.37,483.08,Single-ply,SBD,M,
Boys,139.71,1,Chason McCue,Weatherford,131.63,217.72,158.76,183.7,560.19,Single-ply,SBD,M,
Boys,139.71,2,Spencer Johnson,Peaster,138.25,197.31,120.2,156.49,474,Single-ply,SBD,M,
Boys,139.71+,1,Hector Garcia,Lake Worth,157.85,226.8,122.47,219.99,569.26,Single-ply,SBD,M,
Boys,139.71+,2,Xavier King,Weatherford,153.59,226.8,136.08,204.12,566.99,Single-ply,SBD,M,
Boys,,NS,Jaiden Gallagher,Lake Worth,,,,,,Single-ply,SBD,M,
