Division,WeightClassKg,Place,Name,Team,BodyweightKg,Best3SquatKg,Best3BenchKg,Best3DeadliftKg,TotalKg,Equipment,Event,Sex,BirthDate
Boys,51.71,1,Isaac Herrera,Decatur,51.39,131.54,58.97,158.76,349.27,Single-ply,SBD,M,
Boys,51.71,2,Joseph McClure,Peaster,51.53,124.74,70.31,124.74,319.78,Single-ply,SBD,M,
Boys,51.71,3,Cole Welch,Brock,48.22,79.38,36.29,81.65,197.31,Single-ply,SBD,M,
Boys,55.79,1,Gavin Garcia,Brock,54.98,99.79,54.43,117.93,272.16,Single-ply,SBD,M,
Boys,55.79,2,Chance Dorsey,Santo,53.52,88.45,61.23,117.93,267.62,Single-ply,SBD,M,
Boys,55.79,3,Bryson Brunson,Brock,55.66,108.86,45.36,97.52,251.74,Single-ply,SBD,M,
Boys,55.79,DQ,Kyle Gore,Millsap,54.98,,,,,Single-ply,SBD,M,
Boys,59.87,1,Evan Guzman,Mineral Wells,59.87,158.76,111.13,170.1,439.98,Single-ply,SBD,M,
Boys,59.87,2,Cross Elizardo,Argyle,59.87,163.29,81.65,174.63,419.57,Single-ply,SBD,M,
Boys,67.13,1,Yahir Hernandez,Graham,64.27,183.7,111.13,188.24,483.08,Single-ply,SBD,M,
Boys,67.13,2,Anthony Berrones,Grandview,66.22,172.37,113.4,172.37,458.13,Single-ply,SBD,M,
Boys,67.13,3,Chase Hodges,Celina,66.5,165.56,120.2,172.37,458.13,Single-ply,SBD,M,
Boys,67.13,4,Griffin Cheslock,Brock,65.82,165.56,95.25,185.97,446.79,Single-ply,SBD,M,
Boys,67.13,5,Mathew Salazar,Lake Worth,65,149.69,99.79,181.44,430.91,Single-ply,SBD,M,
Boys,67.13,6,Kevin Ramirez,Weatherford,65.77,165.56,113.4,149.69,428.64,Single-ply,SBD,M,
Boys,67.13,7,Kevin Duran,Decatur,64.68,154.22,83.91,188.24,426.38,Single-ply,SBD,M,
Boys,67.13,8,Jake Dunn,Decatur,62.78,165.56,86.18,170.1,421.84,Single-ply,SBD,M,
Boys,67.13,9,Evan Rogers,Celina,65.86,165.56,111.13,,276.69,Single-ply,SB,M,
Boys,67.13,10,Colton Rudder,Bridgeport,66.32,151.95,95.25,,247.21,Single-ply,SB,M,
Boys,67.13,DQ,Jaxon Mizeski,Millsap,67.04,,,,,Single-ply,SBD,M,
Boys,74.84,1,Aaron Gomez,Argyle,72.94,195.04,156.49,192.78,544.31,Single-ply,SBD,M,
Boys,74.84,2,Mark Castle,Argyle,74.34,217.72,88.45,219.99,526.17,Single-ply,SBD,M,
Boys,74.84,3,Johnathan Donahue,Decatur,74.07,185.97,136.08,181.44,503.49,Single-ply,SBD,M,
Boys,74.84,4,Hudson Ross,Grandview,74.84,165.56,124.74,192.78,483.08,Single-ply,SBD,M,
Boys,74.84,5,Heith Lewis,Peaster,73.84,192.78,111.13,172.37,476.27,Single-ply,SBD,M,
Boys,74.84,6,Jake Pierce,Brock,74.84,183.7,99.79,185.97,469.47,Single-ply,SBD,M,
Boys,74.84,7,Giovanni Torres,Decatur,74.75,185.97,97.52,181.44,464.93,Single-ply,SBD,M,
Boys,74.84,8,Aaron Alix,Peaster,73.94,190.51,104.33,158.76,453.59,Single-ply,SBD,M,
Boys,74.84,9,Zach Brewster,Brock,72.89,158.76,102.06,185.97,446.79,Single-ply,SBD,M,
Boys,74.84,10,Trey Pender,Santo,72.85,142.88,90.72,167.83,401.43,Single-ply,SBD,M,
Boys,74.84,11,Devlon Ellis,Mineral Wells,71.85,142.88,79.38,172.37,394.63,Single-ply,SBD,M,
Boys,74.84,12,Reid Green,Millsap,68.72,151.95,79.38,147.42,378.75,Single-ply,SBD,M,
Boys,82.1,1,Greyson Blanchard,Celina,79.51,328.85,183.7,265.35,777.91,Single-ply,SBD,M,
Boys,82.1,2,Wyatt Lacy,Peaster,78.34,247.21,122.47,233.6,603.28,Single-ply,SBD,M,
Boys,82.1,3,Barrett Smith,Weatherford,79.42,206.38,140.61,213.19,560.19,Single-ply,SBD,M,
Boys,82.1,4,Kevin Salas,Decatur,82.01,217.72,140.61,192.78,551.11,Single-ply,SBD,M,
Boys,82.1,5,Braden Price,Grandview,78.24,204.12,131.54,195.04,530.7,Single-ply,SBD,M,
Boys,82.1,6,Abel Aldape,Decatur,81.47,204.12,136.08,190.51,530.7,Single-ply,SBD,M,
Boys,82.1,7,Aden Hinshaw,Decatur,81.74,213.19,122.47,195.04,530.7,Single-ply,SBD,M,
Boys,82.1,8,Kole Weaver,Millsap,77.84,204.12,108.86,197.31,510.29,Single-ply,SBD,M,
Boys,82.1,9,Jacob Farquhar,Santo,79.97,183.7,97.52,181.44,462.66,Single-ply,SBD,M,
Boys,82.1,10,Cooper Hess,Celina,76.11,176.9,113.4,163.29,453.59,Single-ply,SBD,M,
Boys,82.1,11,Michael Tallant,Santo,79.47,163.29,102.06,176.9,442.25,Single-ply,SBD,M,
Boys,82.1,12,Branden Firth,Santo,79.47,165.56,95.25,170.1,430.91,Single-ply,SBD,M,
Boys,82.1,13,John Hurt,Argyle,79.97,156.49,88.45,181.44,426.38,Single-ply,SBD,M,
Boys,82.1,14,Abdiel Solis,Millsap,76.88,147.42,72.57,161.03,381.02,Single-ply,SBD,M,
Boys,89.81,1,Cole Faires,Peaster,88.68,235.87,138.35,244.94,619.15,Single-ply,SBD,M,
Boys,89.81,2,Emmanuel Lugo,Grandview,87.86,229.06,124.74,210.92,564.72,Single-ply,SBD,M,
Boys,89.81,3,Jorge Padron,Decatur,88.68,219.99,124.74,204.12,548.85,Single-ply,SBD,M,
Boys,89.81,4,Caden Yates,Argyle,89.31,208.65,104.33,222.26,535.24,Single-ply,SBD,M,
Boys,89.81,5,Kaedan Newson,Mineral Wells,89.49,190.51,102.06,190.51,483.08,Single-ply,SBD,M,
Boys,89.81,6,Wilam Washburn,Brock,83.37,185.97,108.86,183.7,478.54,Single-ply,SBD,M,
Boys,89.81,7,Aiden Weathermon,Brock,89.04,165.56,92.99,192.78,451.32,Single-ply,SBD,M,
Boys,89.81,8,Billy Sandoval,Santo,84.59,165.56,95.25,181.44,442.25,Single-ply,SBD,M,
Boys,89.81,9,Adam Moon,Mineral Wells,88.41,133.81,74.84,136.08,344.73,Single-ply,SBD,M,
Boys,89.81,DQ,CJ Navarro,Millsap,83.46,,,,,Single-ply,SBD,M,
Boys,99.79,1,Zack Shivers,Brock,98.52,226.8,158.76,215.46,601.01,Single-ply,SBD,M,
Boys,99.79,2,Gustavo Isaac,Decatur,96.43,215.46,136.08,231.33,582.87,Single-ply,SBD,M,
Boys,99.79,3,Korbin Owens,Decatur,93.53,208.65,138.35,208.65,555.65,Single-ply,SBD,M,
Boys,99.79,4,Bradyn Gachuzo,Peaster,91.44,190.51,131.54,188.24,510.29,Single-ply,SBD,M,
Boys,99.79,5,Cj Hubbard,Celina,91.85,190.51,129.27,190.51,510.29,Single-ply,SBD,M,
Boys,99.79,6,Ethan Brooks,Brock,97.79,183.7,129.27,190.51,503.49,Single-ply,SBD,M,
Boys,99.79,7,Brandon Gray,Mineral Wells,99.34,192.78,99.79,204.12,496.68,Single-ply,SBD,M,
Boys,99.79,8,Shannon Rogers #2,Mineral Wells,94.98,172.37,113.4,172.37,458.13,Single-ply,SBD,M,
Boys,99.79,9,Steven McKey,Millsap,90.49,183.7,99.79,170.1,453.59,Single-ply,SBD,M,
Boys,99.79,10,Lex Laursen,Santo,98.52,172.37,108.86,172.37,453.59,Single-ply,SBD,M,
Boys,99.79,11,Stephen Hernandez,Santo,98.66,172.37,104.33,156.49,433.18,Single-ply,SBD,M,
Boys,99.79,12,Jake Hartjen,Argyle,96.43,145.15,79.38,172.37,396.89,Single-ply,SBD,M,
Boys,99.79,DQ,Aldo Calvillo,Millsap,94.98,226.8,,,,Single-ply,SBD,M,
Boys,109.77,1,Ryan Clark,Weatherford,109.5,249.48,163.29,213.19,625.96,Single-ply,SBD,M,
Boys,109.77,2,Eagan Dennett,Weatherford,102.01,176.9,158.76,215.46,551.11,Single-ply,SBD,M,
Boys,109.77,3,Trace Roger,Brock,105.69,188.24,111.13,217.72,517.1,Single-ply,SBD,M,
Boys,109.77,4,Hunter Bartram,Argyle,107.77,190.51,90.72,174.63,455.86,Single-ply,SBD,M,
Boys,109.77,5,José Castro,Millsap,102.15,154.22,72.57,142.88,369.68,Single-ply,SBD,M,
Boys,109.77,DQ,Xavier Navarro,Grandview,104.96,,,,,Single-ply,SBD,M,
Boys,124.74,1,Austin Criswell,Argyle,122.15,283.5,129.27,238.14,650.91,Single-ply,SBD,M,
Boys,124.74,2,Cooper Sharp,Peaster,111.27,249.48,124.74,215.46,589.67,Single-ply,SBD,M,
Boys,124.74,3,Matthew Welch,Lake Worth,122.83,226.8,133.81,215.46,576.06,Single-ply,SBD,M,
Boys,124.74,4,Carlos Candia,Frisco Wakeland,119.98,231.33,124.74,217.72,573.79,Single-ply,SBD,M,
Boys,124.74,5,Justin Frazier,Graham,118.66,235.87,138.35,183.7,557.92,Single-ply,SBD,M,
Boys,124.74,6,Brock Riker,Brock,112.26,206.38,111.13,199.58,517.1,Single-ply,SBD,M,
Boys,124.74,7,Mason Glover,Millsap,112.72,190.51,90.72,163.29,444.52,Single-ply,SBD,M,
Boys,124.74,8,Tyler Roberts,Argyle,121.97,151.95,83.91,176.9,412.77,Single-ply,SBD,M,
Boys,124.74,DQ,Joshua Espinoza,Lake Worth,116.53,,,,,Single-ply,SBD,M,
Boys,124.74,DQ,Caleb Bayer,Grandview,118.98,,,,,Single-ply,SBD,M,
Boys,124.74,DQ,Hector Pacheco,Millsap,110.31,192.78,,,,Single-ply,SBD,M,
Boys,139.71,1,Michael Reemts,Celina,133.72,331.12,176.9,272.16,780.18,Single-ply,SBD,M,
Boys,139.71,2,Chason McCue,Weatherford,132.68,233.6,172.37,188.24,594.21,Single-ply,SBD,M,
Boys,139.71,3,James Bess,Lake Worth,137.85,240.4,147.42,204.12,591.94,Single-ply,SBD,M,
Boys,139.71,4,Thor Johansson,Argyle,126.28,213.19,108.86,195.04,517.1,Single-ply,SBD,M,
Boys,139.71,DQ,Carson Cortez,Bridgeport,130.68,,,,,Single-ply,SBD,M,
Boys,139.71+,1,Xavier King,Weatherford,155.54,247.21,138.35,208.65,594.21,Single-ply,SBD,M,
Boys,139.71+,2,Rohan Collins,Decatur,154.31,226.8,131.54,215.46,573.79,Single-ply,SBD,M,
Boys,139.71+,3,Billy Bottorff,Millsap,172,226.8,102.06,188.24,517.1,Single-ply,SBD,M,
Boys,139.71+,4,Spencer Johnson,Peaster,140.25,206.38,124.74,176.9,508.02,Single-ply,SBD,M,
Boys,139.71+,5,Diego Rojo,Bridgeport,165.65,226.8,90.72,183.7,501.22,Single-ply,SBD,M,
Boys,139.71+,DQ,Hector Garcia,Lake Worth,158.67,,,,,Single-ply,SBD,M,
